<?xml version="1.0" encoding="UTF-8" standalone="no"?>
<!-- Created with Inkscape (http://www.inkscape.org/) -->

<svg
   xmlns:dc="http://purl.org/dc/elements/1.1/"
   xmlns:cc="http://creativecommons.org/ns#"
   xmlns:rdf="http://www.w3.org/1999/02/22-rdf-syntax-ns#"
   xmlns:svg="http://www.w3.org/2000/svg"
   xmlns="http://www.w3.org/2000/svg"
   xmlns:xlink="http://www.w3.org/1999/xlink"
   xmlns:sodipodi="http://sodipodi.sourceforge.net/DTD/sodipodi-0.dtd"
   xmlns:inkscape="http://www.inkscape.org/namespaces/inkscape"
   width="297mm"
   height="210mm"
   viewBox="0 0 297 210"
   version="1.1"
   id="svg8"
   inkscape:version="0.92.1 r15371"
   sodipodi:docname="simSetup.svg">
  <defs
     id="defs2">
    <linearGradient
       inkscape:collect="always"
       id="linearGradient5757">
      <stop
         style="stop-color:#4daac2;stop-opacity:1;"
         offset="0"
         id="stop5753" />
      <stop
         style="stop-color:#4daac2;stop-opacity:0;"
         offset="1"
         id="stop5755" />
    </linearGradient>
    <marker
       inkscape:stockid="Arrow2Lstart"
       orient="auto"
       refY="0.0"
       refX="0.0"
       id="Arrow2Lstart"
       style="overflow:visible"
       inkscape:isstock="true">
      <path
         id="path4708"
         style="fill-rule:evenodd;stroke-width:0.625;stroke-linejoin:round;stroke:#1500ff;stroke-opacity:1;fill:#1500ff;fill-opacity:1"
         d="M 8.7185878,4.0337352 L -2.2072895,0.016013256 L 8.7185884,-4.0017078 C 6.9730900,-1.6296469 6.9831476,1.6157441 8.7185878,4.0337352 z "
         transform="scale(1.1) translate(1,0)" />
    </marker>
    <marker
       inkscape:isstock="true"
       style="overflow:visible;"
       id="marker5086"
       refX="0.0"
       refY="0.0"
       orient="auto"
       inkscape:stockid="Arrow2Lend">
      <path
         transform="scale(1.1) rotate(180) translate(1,0)"
         d="M 8.7185878,4.0337352 L -2.2072895,0.016013256 L 8.7185884,-4.0017078 C 6.9730900,-1.6296469 6.9831476,1.6157441 8.7185878,4.0337352 z "
         style="fill-rule:evenodd;stroke-width:0.625;stroke-linejoin:round;stroke:#fe0000;stroke-opacity:1;fill:#fe0000;fill-opacity:1"
         id="path5084" />
    </marker>
    <marker
       inkscape:stockid="Arrow1Lend"
       orient="auto"
       refY="0.0"
       refX="0.0"
       id="Arrow1Lend"
       style="overflow:visible;"
       inkscape:isstock="true">
      <path
         id="path4693"
         d="M 0.0,0.0 L 5.0,-5.0 L -12.5,0.0 L 5.0,5.0 L 0.0,0.0 z "
         style="fill-rule:evenodd;stroke:#fe0000;stroke-width:1pt;stroke-opacity:1;fill:#fe0000;fill-opacity:1"
         transform="scale(0.8) rotate(180) translate(12.5,0)" />
    </marker>
    <linearGradient
       inkscape:collect="always"
       id="linearGradient4491">
      <stop
         style="stop-color:#a6e4ff;stop-opacity:1"
         offset="0"
         id="stop4487" />
      <stop
         style="stop-color:#ffffff;stop-opacity:1"
         offset="1"
         id="stop4489" />
    </linearGradient>
    <linearGradient
       inkscape:collect="always"
       xlink:href="#linearGradient4491"
       id="linearGradient4495"
       gradientUnits="userSpaceOnUse"
       x1="54.119637"
       y1="189.26865"
       x2="54.252758"
       y2="110.02322" />
    <linearGradient
       inkscape:collect="always"
       xlink:href="#linearGradient4491"
       id="linearGradient4628"
       gradientUnits="userSpaceOnUse"
       x1="54.119637"
       y1="189.26865"
       x2="54.252758"
       y2="110.02322"
       gradientTransform="scale(-1,1)" />
    <linearGradient
       inkscape:collect="always"
       xlink:href="#linearGradient4491"
       id="linearGradient4630"
       gradientUnits="userSpaceOnUse"
       x1="54.119637"
       y1="189.26865"
       x2="54.252758"
       y2="110.02322" />
    <linearGradient
       inkscape:collect="always"
       xlink:href="#linearGradient5757"
       id="linearGradient5759"
       x1="85.762794"
       y1="150.8557"
       x2="85.762794"
       y2="205.67267"
       gradientUnits="userSpaceOnUse" />
  </defs>
  <sodipodi:namedview
     id="base"
     pagecolor="#ffffff"
     bordercolor="#666666"
     borderopacity="1.0"
     inkscape:pageopacity="0.0"
     inkscape:pageshadow="2"
     inkscape:zoom="1.4142136"
     inkscape:cx="217.83205"
     inkscape:cy="376.95151"
     inkscape:document-units="mm"
     inkscape:current-layer="layer1"
     showgrid="false"
     inkscape:window-width="1916"
     inkscape:window-height="1156"
     inkscape:window-x="0"
     inkscape:window-y="20"
     inkscape:window-maximized="0" />
  <metadata
     id="metadata5">
    <rdf:RDF>
      <cc:Work
         rdf:about="">
        <dc:format>image/svg+xml</dc:format>
        <dc:type
           rdf:resource="http://purl.org/dc/dcmitype/StillImage" />
        <dc:title></dc:title>
      </cc:Work>
    </rdf:RDF>
  </metadata>
  <g
     inkscape:label="Layer 1"
     inkscape:groupmode="layer"
     id="layer1"
     transform="translate(0,-87)">
    <text
       xml:space="preserve"
       style="font-style:normal;font-weight:normal;font-size:5.18167543px;line-height:125%;font-family:sans-serif;text-align:start;letter-spacing:0px;word-spacing:0px;writing-mode:lr-tb;text-anchor:start;fill:#000000;fill-opacity:1;stroke:none;stroke-width:0.26458332px;stroke-linecap:butt;stroke-linejoin:miter;stroke-opacity:1"
       x="-160.61597"
       y="55.059677"
       id="text4525"
       transform="rotate(-90)"><tspan
         sodipodi:role="line"
         x="-160.61597"
         y="59.644245"
         style="font-style:normal;font-variant:normal;font-weight:bold;font-stretch:normal;font-size:3.88055563px;font-family:'Bitstream Vera Sans';-inkscape-font-specification:'Bitstream Vera Sans, Bold';font-variant-ligatures:normal;font-variant-caps:normal;font-variant-numeric:normal;font-feature-settings:normal;text-align:center;writing-mode:lr-tb;text-anchor:middle;stroke-width:0.26458332px"
         id="tspan4527" /></text>
    <text
       xml:space="preserve"
       style="font-style:normal;font-weight:normal;font-size:5.18167543px;line-height:125%;font-family:sans-serif;text-align:start;letter-spacing:0px;word-spacing:0px;writing-mode:lr-tb;text-anchor:start;fill:#000000;fill-opacity:1;stroke:none;stroke-width:0.26458332px;stroke-linecap:butt;stroke-linejoin:miter;stroke-opacity:1"
       x="97.183624"
       y="186.47083"
       id="text4533"><tspan
         sodipodi:role="line"
         id="tspan4531"
         x="97.183624"
         y="191.05539"
         style="font-style:normal;font-variant:normal;font-weight:bold;font-stretch:normal;font-size:3.88055563px;font-family:'Bitstream Vera Sans';-inkscape-font-specification:'Bitstream Vera Sans, Bold';font-variant-ligatures:normal;font-variant-caps:normal;font-variant-numeric:normal;font-feature-settings:normal;text-align:center;writing-mode:lr-tb;text-anchor:middle;stroke-width:0.26458332px" /></text>
    <text
       xml:space="preserve"
       style="font-style:normal;font-weight:normal;font-size:10.58333302px;line-height:125%;font-family:sans-serif;text-align:start;letter-spacing:0px;word-spacing:0px;writing-mode:lr-tb;text-anchor:start;fill:#000000;fill-opacity:1;stroke:none;stroke-width:0.26458332px;stroke-linecap:butt;stroke-linejoin:miter;stroke-opacity:1"
       x="121.70833"
       y="162.53497"
       id="text4537"><tspan
         sodipodi:role="line"
         id="tspan4535"
         x="121.70833"
         y="171.89874"
         style="font-style:normal;font-variant:normal;font-weight:normal;font-stretch:normal;font-size:10.58333302px;font-family:sans-serif;-inkscape-font-specification:'sans-serif, Normal';font-variant-ligatures:normal;font-variant-caps:normal;font-variant-numeric:normal;font-feature-settings:normal;text-align:start;writing-mode:lr-tb;text-anchor:start;stroke-width:0.26458332px" /></text>
    <rect
       style="color:#000000;clip-rule:nonzero;display:inline;overflow:visible;visibility:visible;opacity:1;isolation:auto;mix-blend-mode:normal;color-interpolation:sRGB;color-interpolation-filters:linearRGB;solid-color:#000000;solid-opacity:1;fill:url(#linearGradient4630);fill-opacity:1;fill-rule:nonzero;stroke:#65b1b2;stroke-width:0.3;stroke-linecap:butt;stroke-linejoin:miter;stroke-miterlimit:4;stroke-dasharray:none;stroke-dashoffset:0;stroke-opacity:1;color-rendering:auto;image-rendering:auto;shape-rendering:auto;text-rendering:auto;enable-background:accumulate"
       id="rect4485"
       width="39.799999"
       height="54.799999"
       x="35.099998"
       y="132.09999"
       rx="1.9454255"
       ry="1.9454256"
       inkscape:export-filename="/home/dimitris/repos/cern-gitlab/Btrain-over-WhiteRabbit/doc/manual/figs/simSetup.png"
       inkscape:export-xdpi="299.94699"
       inkscape:export-ydpi="299.94699" />
    <text
       xml:space="preserve"
       style="font-style:normal;font-weight:normal;font-size:5.18167543px;line-height:125%;font-family:sans-serif;text-align:start;letter-spacing:0px;word-spacing:0px;writing-mode:lr-tb;text-anchor:start;fill:#000000;fill-opacity:1;stroke:none;stroke-width:0.26458332px;stroke-linecap:butt;stroke-linejoin:miter;stroke-opacity:1"
       x="54.784164"
       y="136.65878"
       id="text4499"
       inkscape:export-filename="/home/dimitris/repos/cern-gitlab/Btrain-over-WhiteRabbit/doc/manual/figs/simSetup.png"
       inkscape:export-xdpi="299.94699"
       inkscape:export-ydpi="299.94699"><tspan
         sodipodi:role="line"
         id="tspan4497"
         x="54.784164"
         y="136.65878"
         style="font-style:normal;font-variant:normal;font-weight:bold;font-stretch:normal;font-size:5.64444447px;font-family:'Bitstream Vera Sans';-inkscape-font-specification:'Bitstream Vera Sans, Bold';font-variant-ligatures:normal;font-variant-caps:normal;font-variant-numeric:normal;font-feature-settings:normal;text-align:center;writing-mode:lr-tb;text-anchor:middle;stroke-width:0.26458332px">DUT A</tspan></text>
    <text
       id="text4503"
       y="150.33112"
       x="35.510216"
       style="font-style:normal;font-weight:normal;font-size:5.18167543px;line-height:125%;font-family:sans-serif;text-align:start;letter-spacing:0px;word-spacing:0px;writing-mode:lr-tb;text-anchor:start;fill:#000000;fill-opacity:1;stroke:none;stroke-width:0.26458332px;stroke-linecap:butt;stroke-linejoin:miter;stroke-opacity:1"
       xml:space="preserve"
       inkscape:export-filename="/home/dimitris/repos/cern-gitlab/Btrain-over-WhiteRabbit/doc/manual/figs/simSetup.png"
       inkscape:export-xdpi="299.94699"
       inkscape:export-ydpi="299.94699"><tspan
         style="font-style:normal;font-variant:normal;font-weight:bold;font-stretch:normal;font-size:3.88055563px;font-family:'Bitstream Vera Sans';-inkscape-font-specification:'Bitstream Vera Sans, Bold';font-variant-ligatures:normal;font-variant-caps:normal;font-variant-numeric:normal;font-feature-settings:normal;text-align:start;writing-mode:lr-tb;text-anchor:start;stroke-width:0.26458332px"
         y="150.33112"
         x="35.510216"
         id="tspan4501"
         sodipodi:role="line">Tx</tspan></text>
    <text
       xml:space="preserve"
       style="font-style:normal;font-weight:normal;font-size:5.18167543px;line-height:125%;font-family:sans-serif;text-align:start;letter-spacing:0px;word-spacing:0px;writing-mode:lr-tb;text-anchor:start;fill:#000000;fill-opacity:1;stroke:none;stroke-width:0.26458332px;stroke-linecap:butt;stroke-linejoin:miter;stroke-opacity:1"
       x="35.510216"
       y="171.4978"
       id="text4507"
       inkscape:export-filename="/home/dimitris/repos/cern-gitlab/Btrain-over-WhiteRabbit/doc/manual/figs/simSetup.png"
       inkscape:export-xdpi="299.94699"
       inkscape:export-ydpi="299.94699"><tspan
         sodipodi:role="line"
         id="tspan4505"
         x="35.510216"
         y="171.4978"
         style="font-style:normal;font-variant:normal;font-weight:bold;font-stretch:normal;font-size:3.88055563px;font-family:'Bitstream Vera Sans';-inkscape-font-specification:'Bitstream Vera Sans, Bold';font-variant-ligatures:normal;font-variant-caps:normal;font-variant-numeric:normal;font-feature-settings:normal;text-align:start;writing-mode:lr-tb;text-anchor:start;stroke-width:0.26458332px">Rx</tspan></text>
    <text
       id="text4521"
       y="186.47083"
       x="54.850307"
       style="font-style:normal;font-weight:normal;font-size:5.18167543px;line-height:125%;font-family:sans-serif;text-align:start;letter-spacing:0px;word-spacing:0px;writing-mode:lr-tb;text-anchor:start;fill:#000000;fill-opacity:1;stroke:none;stroke-width:0.26458332px;stroke-linecap:butt;stroke-linejoin:miter;stroke-opacity:1"
       xml:space="preserve"
       inkscape:export-filename="/home/dimitris/repos/cern-gitlab/Btrain-over-WhiteRabbit/doc/manual/figs/simSetup.png"
       inkscape:export-xdpi="299.94699"
       inkscape:export-ydpi="299.94699"><tspan
         style="font-style:normal;font-variant:normal;font-weight:bold;font-stretch:normal;font-size:3.88055563px;font-family:'Bitstream Vera Sans';-inkscape-font-specification:'Bitstream Vera Sans, Bold';font-variant-ligatures:normal;font-variant-caps:normal;font-variant-numeric:normal;font-feature-settings:normal;text-align:center;writing-mode:lr-tb;text-anchor:middle;stroke-width:0.26458332px"
         y="186.47083"
         x="54.850307"
         id="tspan4519"
         sodipodi:role="line">Host I/F</tspan></text>
    <path
       style="fill:url(#linearGradient5759);fill-opacity:1;fill-rule:evenodd;stroke:#347d92;stroke-width:0.30000001;stroke-linecap:butt;stroke-linejoin:miter;stroke-miterlimit:4;stroke-dasharray:none;stroke-opacity:1"
       d="m 18,137 h 15 l -0.125849,52 H 77 l 0,-32 h 15 v 32 h 44 v -52 h 16.6109 v 67 H 18.174327 Z"
       id="path4589"
       inkscape:connector-curvature="0"
       sodipodi:nodetypes="ccccccccccccc"
       inkscape:export-filename="/home/dimitris/repos/cern-gitlab/Btrain-over-WhiteRabbit/doc/manual/figs/simSetup.png"
       inkscape:export-xdpi="299.94699"
       inkscape:export-ydpi="299.94699" />
    <rect
       ry="1.9454256"
       rx="1.9454255"
       y="132.10001"
       x="-133.89999"
       height="54.799999"
       width="39.799999"
       id="rect4604"
       style="color:#000000;clip-rule:nonzero;display:inline;overflow:visible;visibility:visible;opacity:1;isolation:auto;mix-blend-mode:normal;color-interpolation:sRGB;color-interpolation-filters:linearRGB;solid-color:#000000;solid-opacity:1;fill:url(#linearGradient4628);fill-opacity:1;fill-rule:nonzero;stroke:#65b1b2;stroke-width:0.3;stroke-linecap:butt;stroke-linejoin:miter;stroke-miterlimit:4;stroke-dasharray:none;stroke-dashoffset:0;stroke-opacity:1;color-rendering:auto;image-rendering:auto;shape-rendering:auto;text-rendering:auto;enable-background:accumulate"
       transform="scale(-1,1)"
       inkscape:export-filename="/home/dimitris/repos/cern-gitlab/Btrain-over-WhiteRabbit/doc/manual/figs/simSetup.png"
       inkscape:export-xdpi="299.94699"
       inkscape:export-ydpi="299.94699" />
    <text
       id="text4608"
       y="136.6588"
       x="113.7225"
       style="font-style:normal;font-weight:normal;font-size:5.18167543px;line-height:125%;font-family:sans-serif;text-align:start;letter-spacing:0px;word-spacing:0px;writing-mode:lr-tb;text-anchor:start;fill:#000000;fill-opacity:1;stroke:none;stroke-width:0.26458332px;stroke-linecap:butt;stroke-linejoin:miter;stroke-opacity:1"
       xml:space="preserve"
       inkscape:export-filename="/home/dimitris/repos/cern-gitlab/Btrain-over-WhiteRabbit/doc/manual/figs/simSetup.png"
       inkscape:export-xdpi="299.94699"
       inkscape:export-ydpi="299.94699"><tspan
         style="font-style:normal;font-variant:normal;font-weight:bold;font-stretch:normal;font-size:5.64444447px;font-family:'Bitstream Vera Sans';-inkscape-font-specification:'Bitstream Vera Sans, Bold';font-variant-ligatures:normal;font-variant-caps:normal;font-variant-numeric:normal;font-feature-settings:normal;text-align:center;writing-mode:lr-tb;text-anchor:middle;stroke-width:0.26458332px"
         y="136.6588"
         x="113.7225"
         id="tspan4606"
         sodipodi:role="line">DUT B</tspan></text>
    <text
       xml:space="preserve"
       style="font-style:normal;font-weight:normal;font-size:5.18167543px;line-height:125%;font-family:sans-serif;text-align:start;letter-spacing:0px;word-spacing:0px;writing-mode:lr-tb;text-anchor:start;fill:#000000;fill-opacity:1;stroke:none;stroke-width:0.26458332px;stroke-linecap:butt;stroke-linejoin:miter;stroke-opacity:1"
       x="114.12127"
       y="186.47084"
       id="text4620"
       inkscape:export-filename="/home/dimitris/repos/cern-gitlab/Btrain-over-WhiteRabbit/doc/manual/figs/simSetup.png"
       inkscape:export-xdpi="299.94699"
       inkscape:export-ydpi="299.94699"><tspan
         sodipodi:role="line"
         id="tspan4618"
         x="114.12127"
         y="186.47084"
         style="font-style:normal;font-variant:normal;font-weight:bold;font-stretch:normal;font-size:3.88055563px;font-family:'Bitstream Vera Sans';-inkscape-font-specification:'Bitstream Vera Sans, Bold';font-variant-ligatures:normal;font-variant-caps:normal;font-variant-numeric:normal;font-feature-settings:normal;text-align:center;writing-mode:lr-tb;text-anchor:middle;stroke-width:0.26458332px">Host I/F</tspan></text>
    <text
       id="text4680"
       y="201.87349"
       x="85.058586"
       style="font-style:normal;font-weight:normal;font-size:5.18167543px;line-height:125%;font-family:sans-serif;text-align:start;letter-spacing:0px;word-spacing:0px;writing-mode:lr-tb;text-anchor:start;fill:#000000;fill-opacity:1;stroke:none;stroke-width:0.26458332px;stroke-linecap:butt;stroke-linejoin:miter;stroke-opacity:1"
       xml:space="preserve"
       inkscape:export-filename="/home/dimitris/repos/cern-gitlab/Btrain-over-WhiteRabbit/doc/manual/figs/simSetup.png"
       inkscape:export-xdpi="299.94699"
       inkscape:export-ydpi="299.94699"><tspan
         style="font-style:normal;font-variant:normal;font-weight:bold;font-stretch:normal;font-size:5.64444447px;font-family:'Bitstream Vera Sans';-inkscape-font-specification:'Bitstream Vera Sans, Bold';font-variant-ligatures:normal;font-variant-caps:normal;font-variant-numeric:normal;font-feature-settings:normal;text-align:center;writing-mode:lr-tb;text-anchor:middle;stroke-width:0.26458332px"
         y="201.87349"
         x="85.058586"
         id="tspan4678"
         sodipodi:role="line">BTrain Reference Design Testbench</tspan></text>
    <text
       id="text4616"
       y="171.49782"
       x="127.70305"
       style="font-style:normal;font-weight:normal;font-size:5.18167543px;line-height:125%;font-family:sans-serif;text-align:start;letter-spacing:0px;word-spacing:0px;writing-mode:lr-tb;text-anchor:start;fill:#000000;fill-opacity:1;stroke:none;stroke-width:0.26458332px;stroke-linecap:butt;stroke-linejoin:miter;stroke-opacity:1"
       xml:space="preserve"
       inkscape:export-filename="/home/dimitris/repos/cern-gitlab/Btrain-over-WhiteRabbit/doc/manual/figs/simSetup.png"
       inkscape:export-xdpi="299.94699"
       inkscape:export-ydpi="299.94699"><tspan
         style="font-style:normal;font-variant:normal;font-weight:bold;font-stretch:normal;font-size:3.88055563px;font-family:'Bitstream Vera Sans';-inkscape-font-specification:'Bitstream Vera Sans, Bold';font-variant-ligatures:normal;font-variant-caps:normal;font-variant-numeric:normal;font-feature-settings:normal;text-align:start;writing-mode:lr-tb;text-anchor:start;stroke-width:0.26458332px"
         y="171.49782"
         x="127.70305"
         id="tspan4614"
         sodipodi:role="line">Rx</tspan></text>
    <path
       style="fill:none;fill-rule:evenodd;stroke:#fe0000;stroke-width:0.30000001;stroke-linecap:butt;stroke-linejoin:miter;stroke-miterlimit:4;stroke-dasharray:1.80000009, 1.80000009;stroke-dashoffset:0;stroke-opacity:1;marker-end:url(#marker5086)"
       d="m 41,149 h 14 l 5,10.5 h 50 l 5,10.5 13,0"
       id="path4682"
       inkscape:connector-curvature="0"
       sodipodi:nodetypes="cccccc"
       inkscape:export-filename="/home/dimitris/repos/cern-gitlab/Btrain-over-WhiteRabbit/doc/manual/figs/simSetup.png"
       inkscape:export-xdpi="299.94699"
       inkscape:export-ydpi="299.94699" />
    <path
       sodipodi:nodetypes="cccccc"
       inkscape:connector-curvature="0"
       id="path4688"
       d="M 41,170.00001 H 55 L 60,159.5 h 50 l 5,-10.49999 13,-1e-5"
       style="fill:none;fill-rule:evenodd;stroke:#1500ff;stroke-width:0.30000001;stroke-linecap:butt;stroke-linejoin:miter;stroke-miterlimit:4;stroke-dasharray:1.8, 1.8;stroke-dashoffset:1.80000019;stroke-opacity:1;marker-start:url(#Arrow2Lstart)"
       inkscape:export-filename="/home/dimitris/repos/cern-gitlab/Btrain-over-WhiteRabbit/doc/manual/figs/simSetup.png"
       inkscape:export-xdpi="299.94699"
       inkscape:export-ydpi="299.94699" />
    <text
       xml:space="preserve"
       style="font-style:normal;font-weight:normal;font-size:5.18167543px;line-height:125%;font-family:sans-serif;text-align:start;letter-spacing:0px;word-spacing:0px;writing-mode:lr-tb;text-anchor:start;fill:#000000;fill-opacity:1;stroke:none;stroke-width:0.26458332px;stroke-linecap:butt;stroke-linejoin:miter;stroke-opacity:1"
       x="69.98204"
       y="160.91446"
       id="text4541"
       inkscape:export-filename="/home/dimitris/repos/cern-gitlab/Btrain-over-WhiteRabbit/doc/manual/figs/simSetup.png"
       inkscape:export-xdpi="299.94699"
       inkscape:export-ydpi="299.94699"><tspan
         sodipodi:role="line"
         x="69.98204"
         y="160.91446"
         style="font-style:normal;font-variant:normal;font-weight:bold;font-stretch:normal;font-size:3.88055563px;font-family:'Bitstream Vera Sans';-inkscape-font-specification:'Bitstream Vera Sans, Bold';font-variant-ligatures:normal;font-variant-caps:normal;font-variant-numeric:normal;font-feature-settings:normal;text-align:center;writing-mode:lr-tb;text-anchor:middle;stroke-width:0.26458332px"
         id="tspan4545">PHY</tspan></text>
    <text
       id="text4624"
       y="160.91447"
       x="98.625732"
       style="font-style:normal;font-weight:normal;font-size:5.18167543px;line-height:125%;font-family:sans-serif;text-align:start;letter-spacing:0px;word-spacing:0px;writing-mode:lr-tb;text-anchor:start;fill:#000000;fill-opacity:1;stroke:none;stroke-width:0.26458332px;stroke-linecap:butt;stroke-linejoin:miter;stroke-opacity:1"
       xml:space="preserve"
       inkscape:export-filename="/home/dimitris/repos/cern-gitlab/Btrain-over-WhiteRabbit/doc/manual/figs/simSetup.png"
       inkscape:export-xdpi="299.94699"
       inkscape:export-ydpi="299.94699"><tspan
         id="tspan4622"
         style="font-style:normal;font-variant:normal;font-weight:bold;font-stretch:normal;font-size:3.88055563px;font-family:'Bitstream Vera Sans';-inkscape-font-specification:'Bitstream Vera Sans, Bold';font-variant-ligatures:normal;font-variant-caps:normal;font-variant-numeric:normal;font-feature-settings:normal;text-align:center;writing-mode:lr-tb;text-anchor:middle;stroke-width:0.26458332px"
         y="160.91447"
         x="98.625732"
         sodipodi:role="line">PHY</tspan></text>
    <g
       id="g5589"
       inkscape:export-filename="/home/dimitris/repos/cern-gitlab/Btrain-over-WhiteRabbit/doc/manual/figs/simSetup.png"
       inkscape:export-xdpi="299.94699"
       inkscape:export-ydpi="299.94699">
      <g
         transform="translate(0,0.31029663)"
         id="g5292">
        <rect
           style="color:#000000;clip-rule:nonzero;display:inline;overflow:visible;visibility:visible;opacity:1;isolation:auto;mix-blend-mode:normal;color-interpolation:sRGB;color-interpolation-filters:linearRGB;solid-color:#000000;solid-opacity:1;fill:#0000ff;fill-opacity:1;fill-rule:nonzero;stroke:none;stroke-width:0.30000001;stroke-linecap:butt;stroke-linejoin:miter;stroke-miterlimit:4;stroke-dasharray:none;stroke-dashoffset:0;stroke-opacity:1;color-rendering:auto;image-rendering:auto;shape-rendering:auto;text-rendering:auto;enable-background:accumulate"
           id="rect5198"
           width="12.432724"
           height="7.3466091"
           x="137.80969"
           y="144.93306"
           rx="0.39558664"
           ry="0.39558664" />
        <text
           id="text5284"
           y="147.5515"
           x="143.97017"
           style="font-style:normal;font-weight:normal;font-size:2.70521617px;line-height:125%;font-family:sans-serif;text-align:start;letter-spacing:0px;word-spacing:0px;writing-mode:lr-tb;text-anchor:start;fill:#000000;fill-opacity:1;stroke:none;stroke-width:0.26458332px;stroke-linecap:butt;stroke-linejoin:miter;stroke-opacity:1"
           xml:space="preserve"><tspan
             style="font-style:normal;font-variant:normal;font-weight:normal;font-stretch:normal;font-size:2.02593589px;font-family:'Bitstream Vera Sans';-inkscape-font-specification:'Bitstream Vera Sans, Normal';font-variant-ligatures:normal;font-variant-caps:normal;font-variant-numeric:normal;font-feature-settings:normal;text-align:center;writing-mode:lr-tb;text-anchor:middle;fill:#ffffff;fill-opacity:1;stroke-width:0.26458332px"
             y="147.5515"
             x="143.97017"
             id="tspan5282"
             sodipodi:role="line">Frame</tspan><tspan
             style="font-style:normal;font-variant:normal;font-weight:normal;font-stretch:normal;font-size:2.02593589px;font-family:'Bitstream Vera Sans';-inkscape-font-specification:'Bitstream Vera Sans, Normal';font-variant-ligatures:normal;font-variant-caps:normal;font-variant-numeric:normal;font-feature-settings:normal;text-align:center;writing-mode:lr-tb;text-anchor:middle;fill:#ffffff;fill-opacity:1;stroke-width:0.26458332px"
             y="151.10947"
             x="143.97017"
             sodipodi:role="line"
             id="tspan5286">Generator</tspan></text>
      </g>
    </g>
    <g
       id="g5616"
       inkscape:export-filename="/home/dimitris/repos/cern-gitlab/Btrain-over-WhiteRabbit/doc/manual/figs/simSetup.png"
       inkscape:export-xdpi="299.94699"
       inkscape:export-ydpi="299.94699">
      <rect
         style="color:#000000;clip-rule:nonzero;display:inline;overflow:visible;visibility:visible;opacity:1;isolation:auto;mix-blend-mode:normal;color-interpolation:sRGB;color-interpolation-filters:linearRGB;solid-color:#000000;solid-opacity:1;fill:#ff0000;fill-opacity:1;fill-rule:nonzero;stroke:none;stroke-width:0.30000001;stroke-linecap:butt;stroke-linejoin:miter;stroke-miterlimit:4;stroke-dasharray:none;stroke-dashoffset:0;stroke-opacity:1;color-rendering:auto;image-rendering:auto;shape-rendering:auto;text-rendering:auto;enable-background:accumulate"
         id="rect5591"
         width="12.432724"
         height="7.3466091"
         x="19.276361"
         y="145.24336"
         rx="0.39558664"
         ry="0.39558664" />
      <text
         id="text5597"
         y="147.8618"
         x="25.436838"
         style="font-style:normal;font-weight:normal;font-size:2.70521617px;line-height:125%;font-family:sans-serif;text-align:start;letter-spacing:0px;word-spacing:0px;writing-mode:lr-tb;text-anchor:start;fill:#000000;fill-opacity:1;stroke:none;stroke-width:0.26458332px;stroke-linecap:butt;stroke-linejoin:miter;stroke-opacity:1"
         xml:space="preserve"><tspan
           style="font-style:normal;font-variant:normal;font-weight:normal;font-stretch:normal;font-size:2.02593589px;font-family:'Bitstream Vera Sans';-inkscape-font-specification:'Bitstream Vera Sans, Normal';font-variant-ligatures:normal;font-variant-caps:normal;font-variant-numeric:normal;font-feature-settings:normal;text-align:center;writing-mode:lr-tb;text-anchor:middle;fill:#ffffff;fill-opacity:1;stroke-width:0.26458332px"
           y="147.8618"
           x="25.436838"
           id="tspan5593"
           sodipodi:role="line">Frame</tspan><tspan
           style="font-style:normal;font-variant:normal;font-weight:normal;font-stretch:normal;font-size:2.02593589px;font-family:'Bitstream Vera Sans';-inkscape-font-specification:'Bitstream Vera Sans, Normal';font-variant-ligatures:normal;font-variant-caps:normal;font-variant-numeric:normal;font-feature-settings:normal;text-align:center;writing-mode:lr-tb;text-anchor:middle;fill:#ffffff;fill-opacity:1;stroke-width:0.26458332px"
           y="151.41977"
           x="25.436838"
           sodipodi:role="line"
           id="tspan5595">Generator</tspan></text>
    </g>
    <g
       id="g5682"
       inkscape:export-filename="/home/dimitris/repos/cern-gitlab/Btrain-over-WhiteRabbit/doc/manual/figs/simSetup.png"
       inkscape:export-xdpi="299.94699"
       inkscape:export-ydpi="299.94699">
      <rect
         ry="0.39558664"
         rx="0.39558664"
         y="166.41005"
         x="137.80969"
         height="7.3466091"
         width="12.432724"
         id="rect5618"
         style="color:#000000;clip-rule:nonzero;display:inline;overflow:visible;visibility:visible;opacity:1;isolation:auto;mix-blend-mode:normal;color-interpolation:sRGB;color-interpolation-filters:linearRGB;solid-color:#000000;solid-opacity:1;fill:#ff0000;fill-opacity:1;fill-rule:nonzero;stroke:none;stroke-width:0.30000001;stroke-linecap:butt;stroke-linejoin:miter;stroke-miterlimit:4;stroke-dasharray:none;stroke-dashoffset:0;stroke-opacity:1;color-rendering:auto;image-rendering:auto;shape-rendering:auto;text-rendering:auto;enable-background:accumulate" />
      <text
         xml:space="preserve"
         style="font-style:normal;font-weight:normal;font-size:2.70521617px;line-height:125%;font-family:sans-serif;text-align:start;letter-spacing:0px;word-spacing:0px;writing-mode:lr-tb;text-anchor:start;fill:#000000;fill-opacity:1;stroke:none;stroke-width:0.26458332px;stroke-linecap:butt;stroke-linejoin:miter;stroke-opacity:1"
         x="143.97017"
         y="169.02849"
         id="text5624"><tspan
           sodipodi:role="line"
           id="tspan5620"
           x="143.97017"
           y="169.02849"
           style="font-style:normal;font-variant:normal;font-weight:normal;font-stretch:normal;font-size:2.02593589px;font-family:'Bitstream Vera Sans';-inkscape-font-specification:'Bitstream Vera Sans, Normal';font-variant-ligatures:normal;font-variant-caps:normal;font-variant-numeric:normal;font-feature-settings:normal;text-align:center;writing-mode:lr-tb;text-anchor:middle;fill:#ffffff;fill-opacity:1;stroke-width:0.26458332px">Frame</tspan><tspan
           id="tspan5622"
           sodipodi:role="line"
           x="143.97017"
           y="172.58646"
           style="font-style:normal;font-variant:normal;font-weight:normal;font-stretch:normal;font-size:2.02593589px;font-family:'Bitstream Vera Sans';-inkscape-font-specification:'Bitstream Vera Sans, Normal';font-variant-ligatures:normal;font-variant-caps:normal;font-variant-numeric:normal;font-feature-settings:normal;text-align:center;writing-mode:lr-tb;text-anchor:middle;fill:#ffffff;fill-opacity:1;stroke-width:0.26458332px">Monitor</tspan></text>
    </g>
    <text
       xml:space="preserve"
       style="font-style:normal;font-weight:normal;font-size:5.18167543px;line-height:125%;font-family:sans-serif;text-align:start;letter-spacing:0px;word-spacing:0px;writing-mode:lr-tb;text-anchor:start;fill:#000000;fill-opacity:1;stroke:none;stroke-width:0.26458332px;stroke-linecap:butt;stroke-linejoin:miter;stroke-opacity:1"
       x="128.38139"
       y="150.33113"
       id="text4612"
       inkscape:export-filename="/home/dimitris/repos/cern-gitlab/Btrain-over-WhiteRabbit/doc/manual/figs/simSetup.png"
       inkscape:export-xdpi="299.94699"
       inkscape:export-ydpi="299.94699"><tspan
         sodipodi:role="line"
         id="tspan4610"
         x="128.38139"
         y="150.33113"
         style="font-style:normal;font-variant:normal;font-weight:bold;font-stretch:normal;font-size:3.88055563px;font-family:'Bitstream Vera Sans';-inkscape-font-specification:'Bitstream Vera Sans, Bold';font-variant-ligatures:normal;font-variant-caps:normal;font-variant-numeric:normal;font-feature-settings:normal;text-align:start;writing-mode:lr-tb;text-anchor:start;stroke-width:0.26458332px">Tx</tspan></text>
    <rect
       ry="0.39558664"
       rx="0.39558664"
       y="166.41005"
       x="19.276361"
       height="7.3466091"
       width="12.432724"
       id="rect5684"
       style="color:#000000;clip-rule:nonzero;display:inline;overflow:visible;visibility:visible;opacity:1;isolation:auto;mix-blend-mode:normal;color-interpolation:sRGB;color-interpolation-filters:linearRGB;solid-color:#000000;solid-opacity:1;fill:#0000ff;fill-opacity:1;fill-rule:nonzero;stroke:none;stroke-width:0.30000001;stroke-linecap:butt;stroke-linejoin:miter;stroke-miterlimit:4;stroke-dasharray:none;stroke-dashoffset:0;stroke-opacity:1;color-rendering:auto;image-rendering:auto;shape-rendering:auto;text-rendering:auto;enable-background:accumulate"
       inkscape:export-filename="/home/dimitris/repos/cern-gitlab/Btrain-over-WhiteRabbit/doc/manual/figs/simSetup.png"
       inkscape:export-xdpi="299.94699"
       inkscape:export-ydpi="299.94699" />
    <text
       xml:space="preserve"
       style="font-style:normal;font-weight:normal;font-size:2.70521617px;line-height:125%;font-family:sans-serif;text-align:start;letter-spacing:0px;word-spacing:0px;writing-mode:lr-tb;text-anchor:start;fill:#000000;fill-opacity:1;stroke:none;stroke-width:0.26458332px;stroke-linecap:butt;stroke-linejoin:miter;stroke-opacity:1"
       x="25.436838"
       y="169.02849"
       id="text5690"
       inkscape:export-filename="/home/dimitris/repos/cern-gitlab/Btrain-over-WhiteRabbit/doc/manual/figs/simSetup.png"
       inkscape:export-xdpi="299.94699"
       inkscape:export-ydpi="299.94699"><tspan
         sodipodi:role="line"
         id="tspan5686"
         x="25.436838"
         y="169.02849"
         style="font-style:normal;font-variant:normal;font-weight:normal;font-stretch:normal;font-size:2.02593589px;font-family:'Bitstream Vera Sans';-inkscape-font-specification:'Bitstream Vera Sans, Normal';font-variant-ligatures:normal;font-variant-caps:normal;font-variant-numeric:normal;font-feature-settings:normal;text-align:center;writing-mode:lr-tb;text-anchor:middle;fill:#ffffff;fill-opacity:1;stroke-width:0.26458332px">Frame</tspan><tspan
         id="tspan5688"
         sodipodi:role="line"
         x="25.436838"
         y="172.58646"
         style="font-style:normal;font-variant:normal;font-weight:normal;font-stretch:normal;font-size:2.02593589px;font-family:'Bitstream Vera Sans';-inkscape-font-specification:'Bitstream Vera Sans, Normal';font-variant-ligatures:normal;font-variant-caps:normal;font-variant-numeric:normal;font-feature-settings:normal;text-align:center;writing-mode:lr-tb;text-anchor:middle;fill:#ffffff;fill-opacity:1;stroke-width:0.26458332px">Monitor</tspan></text>
    <g
       id="g5732"
       inkscape:export-filename="/home/dimitris/repos/cern-gitlab/Btrain-over-WhiteRabbit/doc/manual/figs/simSetup.png"
       inkscape:export-xdpi="299.94699"
       inkscape:export-ydpi="299.94699">
      <rect
         ry="0.39558664"
         rx="0.39558664"
         y="190.21497"
         x="48.783638"
         height="3.6500001"
         width="12.432724"
         id="rect5698"
         style="color:#000000;clip-rule:nonzero;display:inline;overflow:visible;visibility:visible;opacity:1;isolation:auto;mix-blend-mode:normal;color-interpolation:sRGB;color-interpolation-filters:linearRGB;solid-color:#000000;solid-opacity:1;fill:#8165a2;fill-opacity:1;fill-rule:nonzero;stroke:none;stroke-width:0.30000001;stroke-linecap:butt;stroke-linejoin:miter;stroke-miterlimit:4;stroke-dasharray:none;stroke-dashoffset:0;stroke-opacity:1;color-rendering:auto;image-rendering:auto;shape-rendering:auto;text-rendering:auto;enable-background:accumulate" />
      <text
         xml:space="preserve"
         style="font-style:normal;font-weight:normal;font-size:2.70521617px;line-height:125%;font-family:sans-serif;text-align:start;letter-spacing:0px;word-spacing:0px;writing-mode:lr-tb;text-anchor:start;fill:#000000;fill-opacity:1;stroke:none;stroke-width:0.26458332px;stroke-linecap:butt;stroke-linejoin:miter;stroke-opacity:1"
         x="55"
         y="192.76408"
         id="text5704"><tspan
           id="tspan5702"
           sodipodi:role="line"
           x="55"
           y="192.76408"
           style="font-style:normal;font-variant:normal;font-weight:normal;font-stretch:normal;font-size:2.02593589px;font-family:'Bitstream Vera Sans';-inkscape-font-specification:'Bitstream Vera Sans, Normal';font-variant-ligatures:normal;font-variant-caps:normal;font-variant-numeric:normal;font-feature-settings:normal;text-align:center;writing-mode:lr-tb;text-anchor:middle;fill:#ffffff;fill-opacity:1;stroke-width:0.26458332px">Host BFM</tspan></text>
    </g>
    <g
       id="g5740"
       transform="translate(58.999994)"
       inkscape:export-filename="/home/dimitris/repos/cern-gitlab/Btrain-over-WhiteRabbit/doc/manual/figs/simSetup.png"
       inkscape:export-xdpi="299.94699"
       inkscape:export-ydpi="299.94699">
      <rect
         style="color:#000000;clip-rule:nonzero;display:inline;overflow:visible;visibility:visible;opacity:1;isolation:auto;mix-blend-mode:normal;color-interpolation:sRGB;color-interpolation-filters:linearRGB;solid-color:#000000;solid-opacity:1;fill:#8165a2;fill-opacity:1;fill-rule:nonzero;stroke:none;stroke-width:0.30000001;stroke-linecap:butt;stroke-linejoin:miter;stroke-miterlimit:4;stroke-dasharray:none;stroke-dashoffset:0;stroke-opacity:1;color-rendering:auto;image-rendering:auto;shape-rendering:auto;text-rendering:auto;enable-background:accumulate"
         id="rect5734"
         width="12.432724"
         height="3.6500001"
         x="48.783638"
         y="190.21497"
         rx="0.39558664"
         ry="0.39558664" />
      <text
         id="text5738"
         y="192.76408"
         x="55"
         style="font-style:normal;font-weight:normal;font-size:2.70521617px;line-height:125%;font-family:sans-serif;text-align:start;letter-spacing:0px;word-spacing:0px;writing-mode:lr-tb;text-anchor:start;fill:#000000;fill-opacity:1;stroke:none;stroke-width:0.26458332px;stroke-linecap:butt;stroke-linejoin:miter;stroke-opacity:1"
         xml:space="preserve"><tspan
           style="font-style:normal;font-variant:normal;font-weight:normal;font-stretch:normal;font-size:2.02593589px;font-family:'Bitstream Vera Sans';-inkscape-font-specification:'Bitstream Vera Sans, Normal';font-variant-ligatures:normal;font-variant-caps:normal;font-variant-numeric:normal;font-feature-settings:normal;text-align:center;writing-mode:lr-tb;text-anchor:middle;fill:#ffffff;fill-opacity:1;stroke-width:0.26458332px"
           y="192.76408"
           x="55"
           sodipodi:role="line"
           id="tspan5736">Host BFM</tspan></text>
    </g>
    <rect
       style="color:#000000;clip-rule:nonzero;display:inline;overflow:visible;visibility:visible;opacity:1;isolation:auto;mix-blend-mode:normal;color-interpolation:sRGB;color-interpolation-filters:linearRGB;solid-color:#000000;solid-opacity:1;fill:#3e3e3e;fill-opacity:0.58984375;fill-rule:nonzero;stroke:none;stroke-width:0.30000001;stroke-linecap:butt;stroke-linejoin:miter;stroke-miterlimit:4;stroke-dasharray:none;stroke-dashoffset:0;stroke-opacity:1;color-rendering:auto;image-rendering:auto;shape-rendering:auto;text-rendering:auto;enable-background:accumulate"
       id="rect5742"
       width="12.432724"
       height="3.6500001"
       x="78.150291"
       y="157.675"
       rx="0.39558664"
       ry="0.39558664"
       inkscape:export-filename="/home/dimitris/repos/cern-gitlab/Btrain-over-WhiteRabbit/doc/manual/figs/simSetup.png"
       inkscape:export-xdpi="299.94699"
       inkscape:export-ydpi="299.94699" />
    <text
       id="text5746"
       y="160.22412"
       x="84.366653"
       style="font-style:normal;font-weight:normal;font-size:2.70521617px;line-height:125%;font-family:sans-serif;text-align:start;letter-spacing:0px;word-spacing:0px;writing-mode:lr-tb;text-anchor:start;fill:#000000;fill-opacity:1;stroke:none;stroke-width:0.26458332px;stroke-linecap:butt;stroke-linejoin:miter;stroke-opacity:1"
       xml:space="preserve"
       inkscape:export-filename="/home/dimitris/repos/cern-gitlab/Btrain-over-WhiteRabbit/doc/manual/figs/simSetup.png"
       inkscape:export-xdpi="299.94699"
       inkscape:export-ydpi="299.94699"><tspan
         style="font-style:normal;font-variant:normal;font-weight:normal;font-stretch:normal;font-size:2.02593589px;font-family:'Bitstream Vera Sans';-inkscape-font-specification:'Bitstream Vera Sans, Normal';font-variant-ligatures:normal;font-variant-caps:normal;font-variant-numeric:normal;font-feature-settings:normal;text-align:center;writing-mode:lr-tb;text-anchor:middle;fill:#ffffff;fill-opacity:1;stroke-width:0.26458332px"
         y="160.22412"
         x="84.366653"
         sodipodi:role="line"
         id="tspan5744">Link</tspan></text>
  </g>
</svg>
